{
  "recruiter": [
    {
      "id": 2,
      "name": "RC2",
      "canTest": true,
      "available": false
    },
    {
      "id": 4,
      "name": "RC4",
      "canTest": true,
      "available": true
    },
    {
      "id": 6,
      "name": "RC6",
      "canTest": true,
      "available": true
    }
  ]
}